1 10 20
100 200 125
201 210 89
900 1000 174
165467 128056 383
72851 268927 443
129197 292388 443
93034 368878 443
5221 275105 443
90936 276236 443
379862 258772 441
34252 354238 443
384646 335080 441
398760 314406 441
321512 227546 443
282157 226786 443
189352 277430 443
310764 335428 384
335836 201469 443
263623 86630 443
9673 386728 443
255462 335085 407
42662 176876 383
195926 361604 443
304927 44192 443
214067 239560 443
49908 18736 324
91131 349678 443
168377 310224 443
378504 190063 443
256990 184177 443
220607 251727 443
373655 323521 441
15763 173907 383
329399 57907 443
118373 250596 443
8250 24754 282
353410 89806 443
263295 294309 407
395284 143978 443
133393 44663 354
195373 337114 443
283951 32324 443
399550 85893 443
7100 91027 351
3989 56202 340
140041 345554 443
240617 30181 443
131899 299835 443
26294 134303 354
72935 247844 443
211350 20453 383
114765 346634 443
186867 212975 373
38396 260740 443
277214 187610 443
289340 153775 443
270620 101755 443
336671 199070 443
40440 124860 354
188376 299076 443
53847 72793 335
83736 141299 354
227484 233339 443
320656 102597 443
117041 136821 344
258363 112252 443
386503 205383 443
98475 2963 351
208519 236166 443
73101 75435 325
38301 250324 443
385503 76984 443
83040 282621 443
195617 17737 383
250608 385020 441
268212 25666 443
228938 192498 386
97823 133839 354
45190 142755 375
76626 235706 443
361394 205042 443
360112 362758 410
140269 235458 443
239440 60573 443
143427 228747 386
360177 296856 441
199883 92462 383
157784 180409 370
364628 391034 436
91592 349060 443
369820 325998 441
299897 95459 443
284757 270749 389
367319 153140 443
303824 289254 371
301796 289429 371
212581 52388 383
359736 310902 441
168013 42882 383
170878 291543 443
262592 329839 407
166252 124430 383
184228 28971 383
